{"success":true,"data":{"data":[{"id":"cmpdknk4s008111kw3zr8aimf","sellerId":"cmpdjc82b0001mfv72cn8dxq1","brandId":"claas","categoryId":"baler","modelName":"5300RC","year":2022,"workingHours":null,"condition":"excellent","priceCny":650000,"priceUsd":89655,"location":"神雕农机","country":null,"province":null,"city":null,"descriptionZh":"克拉斯5300RC大方捆打捆机2022年全新，打包尺寸120×90cm，双桥6个打结器6道绳，带售后服务一年质保，进口拖拉机2404/2504可带","descriptionEn":"CLAAS 5300RC large square baler 2022, brand new, bale size 120×90cm, tandem axle 6 knotters 6 ropes, 1-year warranty, requires 240/250HP tractor","descriptionRu":null,"descriptionEs":null,"descriptionPt":null,"descriptionAr":null,"descriptionFr":null,"descriptionHi":null,"aiGenerated":false,"status":"active","enginePower":null,"engineType":"Diesel Engine","driveSystem":"2WD","overallLength":null,"overallWidth":null,"overallHeight":null,"netWeight":null,"mainConfig":null,"priceMode":"por","tradeTerm":"FOB","tradePort":"Qingdao","latitude":null,"longitude":null,"standardDescriptionEn":null,"createdAt":"2026-05-20T04:38:40.300Z","updatedAt":"2026-07-14T00:40:39.377Z","brand":{"id":"claas","nameZh":"克拉斯","nameEn":"CLAAS","nameRu":"КЛААС","nameEs":"","namePt":"","nameAr":"","nameFr":"","nameHi":"","originCountry":"DE","isImported":true,"isChineseBrand":false,"brandTier":"flagship","expoSlug":"claas","expoLogoUrl":"https://usedfarmmach-oss.oss-cn-beijing.aliyuncs.com/expo/brand-logos/claas.svg","expoCoverUrl":null,"expoStory":"德国克拉斯，全球收获机械领域无可争议的领导者。1913年发明第一台捆扎机，至今110余年。LEXION系列联合收割机全球销量第一，JAGUAR青贮收割机市占率超50%。在牧草设备领域同样处于全球领先地位。","officialWebsite":"https://www.claas.com","establishedYear":1913,"exportVolume":"全球收割机市占率第一，出口150+国家"},"category":{"id":"baler","nameZh":"打捆机","nameEn":"Baler","nameRu":"Пресс-подборщик","nameEs":"","namePt":"","nameAr":"","nameFr":"","nameHi":"","parentId":null},"images":[{"id":"cmpv92dhq0001m0nebol4i9pb","productId":"cmpdknk4s008111kw3zr8aimf","url":"https://usedfarmmach-oss.oss-cn-beijing.aliyuncs.com/products/cmpdknk4s008111kw3zr8aimf/fm.jpg?x-oss-process=image/format,webp/quality,q_75/resize,m_fixed,w_600","sortOrder":0,"isPrimary":true,"angleLabel":null}],"videos":[],"internationalPrices":[{"id":"cmpfimhbl0009v5ldrj8gdg11","productId":"cmpdknk4s008111kw3zr8aimf","priceForeignCny":593250,"priceForeignRaw":75000,"currency":"EUR","exchangeRate":7.91,"source":"e-farm","sourceUrl":null,"sourceDate":"20260701","country":"DE","notes":"全新大方捆 ~59万RMB | 毛利率83.0% | 机会等级:★★","createdAt":"2026-05-21T13:17:23.122Z","updatedAt":"2026-07-01T15:37:15.458Z","isActive":true,"confidenceScore":0.85,"lastVerified":"2026-07-01T15:37:15.457Z"}],"seller":{"id":"cmpdjc82b0001mfv72cn8dxq1","companyName":"神雕农机","country":"CN"}},{"id":"cmpdknitp001v11kwskpdqx6s","sellerId":"cmpdjc82b0001mfv72cn8dxq1","brandId":"claas","categoryId":"forage-harvester","modelName":"980","year":2016,"workingHours":3679,"condition":"good","priceCny":1430000,"priceUsd":197000,"location":"神雕农机","country":null,"province":null,"city":null,"descriptionZh":"克拉斯980美版青储机2016年，二驱884马力，单发曼恩V12发动机，轧辊3679小时，发动机5013小时，奥贝斯割台600 6米宽，24刀片不烧尿素","descriptionEn":"CLAAS 980 US spec forage harvester 2016, 2WD 884HP, MAN V12 engine, roller 3679h, engine 5013h, Orbis 600 header 6m, 24 knives no DEF","descriptionRu":null,"descriptionEs":null,"descriptionPt":null,"descriptionAr":null,"descriptionFr":null,"descriptionHi":null,"aiGenerated":false,"status":"active","enginePower":null,"engineType":"Diesel Engine","driveSystem":"2WD","overallLength":null,"overallWidth":null,"overallHeight":null,"netWeight":null,"mainConfig":null,"priceMode":"por","tradeTerm":"FOB","tradePort":"Qingdao","latitude":null,"longitude":null,"standardDescriptionEn":null,"createdAt":"2026-05-20T04:38:38.605Z","updatedAt":"2026-07-02T09:16:31.099Z","brand":{"id":"claas","nameZh":"克拉斯","nameEn":"CLAAS","nameRu":"КЛААС","nameEs":"","namePt":"","nameAr":"","nameFr":"","nameHi":"","originCountry":"DE","isImported":true,"isChineseBrand":false,"brandTier":"flagship","expoSlug":"claas","expoLogoUrl":"https://usedfarmmach-oss.oss-cn-beijing.aliyuncs.com/expo/brand-logos/claas.svg","expoCoverUrl":null,"expoStory":"德国克拉斯，全球收获机械领域无可争议的领导者。1913年发明第一台捆扎机，至今110余年。LEXION系列联合收割机全球销量第一，JAGUAR青贮收割机市占率超50%。在牧草设备领域同样处于全球领先地位。","officialWebsite":"https://www.claas.com","establishedYear":1913,"exportVolume":"全球收割机市占率第一，出口150+国家"},"category":{"id":"forage-harvester","nameZh":"青储机","nameEn":"Forage Harvester","nameRu":"Силосоуборочный комбайн","nameEs":"","namePt":"","nameAr":"","nameFr":"","nameHi":"","parentId":null},"images":[{"id":"cmqrmu49r0005jbmhybfwtt3u","productId":"cmpdknitp001v11kwskpdqx6s","url":"https://usedfarmmach-oss.oss-cn-beijing.aliyuncs.com/products/cmpdknitp001v11kwskpdqx6s/fmCLAAS980_cover.jpg?x-oss-process=image/format,webp/quality,q_75/resize,m_fixed,w_600","sortOrder":0,"isPrimary":true,"angleLabel":null}],"videos":[{"id":"cmpffndym000frs0jcgakhrad","url":"https://usedfarmmach-oss.oss-cn-beijing.aliyuncs.com/products/cmpdknitp001v11kwskpdqx6s/video_1.mp4"}],"internationalPrices":[{"id":"cmpfimhb40003v5ldjmjud7jc","productId":"cmpdknitp001v11kwskpdqx6s","priceForeignCny":3649975,"priceForeignRaw":461438,"currency":"EUR","exchangeRate":7.91,"source":"Agroline","sourceUrl":null,"sourceDate":"20260701","country":"DE","notes":"2022款 T4/E5 ~365万RMB | 毛利率109.0% | 机会等级:★★★","createdAt":"2026-05-21T13:17:23.105Z","updatedAt":"2026-07-01T15:37:10.058Z","isActive":true,"confidenceScore":0.85,"lastVerified":"2026-07-01T15:37:10.057Z"}],"seller":{"id":"cmpdjc82b0001mfv72cn8dxq1","companyName":"神雕农机","country":"CN"}},{"id":"cmpdknjh6004x11kwkz5gvrbo","sellerId":"cmpdjc82b0001mfv72cn8dxq1","brandId":"new-holland","categoryId":"forage-harvester","modelName":"9080","year":2009,"workingHours":null,"condition":"good","priceCny":690000,"priceUsd":95172,"location":"神雕农机","country":null,"province":null,"city":null,"descriptionZh":"纽荷兰9080青储机2009年，28片刀，740马力卡特发动机，四驱25km/h，中央润滑系统，金属探测，可收割柠条","descriptionEn":"New Holland 9080 forage harvester 2009, 28 knives, 740HP Caterpillar engine, 4WD 25km/h, central lube, metal detection, capable of harvesting caragana","descriptionRu":null,"descriptionEs":null,"descriptionPt":null,"descriptionAr":null,"descriptionFr":null,"descriptionHi":null,"aiGenerated":false,"status":"active","enginePower":null,"engineType":"Diesel Engine","driveSystem":"2WD","overallLength":null,"overallWidth":null,"overallHeight":null,"netWeight":null,"mainConfig":null,"priceMode":"por","tradeTerm":"FOB","tradePort":"Qingdao","latitude":null,"longitude":null,"standardDescriptionEn":null,"createdAt":"2026-05-20T04:38:39.450Z","updatedAt":"2026-07-10T04:01:45.527Z","brand":{"id":"new-holland","nameZh":"纽荷兰","nameEn":"New Holland","nameRu":"Нью Холланд","nameEs":"","namePt":"","nameAr":"","nameFr":"","nameHi":"","originCountry":"US","isImported":true,"isChineseBrand":false,"brandTier":"flagship","expoSlug":"new-holland","expoLogoUrl":"https://usedfarmmach-oss.oss-cn-beijing.aliyuncs.com/expo/brand-logos/new-holland.svg","expoCoverUrl":null,"expoStory":"纽荷兰（New Holland），CNH工业集团旗下品牌，创立于1895年。CR系列双转子联合收割机是行业技术标杆，T9系列大马力拖拉机在北美市场拥有极高占有率。品牌以蓝色标识和可靠品质著称。","officialWebsite":"https://agriculture.newholland.com","establishedYear":1895,"exportVolume":"CNH工业旗下，全球农机前三"},"category":{"id":"forage-harvester","nameZh":"青储机","nameEn":"Forage Harvester","nameRu":"Силосоуборочный комбайн","nameEs":"","namePt":"","nameAr":"","nameFr":"","nameHi":"","parentId":null},"images":[{"id":"cmq1ryiun0003az1fgbmbzy8n","productId":"cmpdknjh6004x11kwkz5gvrbo","url":"https://usedfarmmach-oss.oss-cn-beijing.aliyuncs.com/products/cmpdknjh6004x11kwkz5gvrbo/1070880144c821cb9cd7bafeca36fa7f.jpg?x-oss-process=image/format,webp/quality,q_75/resize,m_fixed,w_600","sortOrder":1,"isPrimary":false,"angleLabel":null}],"videos":[],"internationalPrices":[{"id":"cmpfimhbx000dv5ldiqi686k3","productId":"cmpdknjh6004x11kwkz5gvrbo","priceForeignCny":688750,"priceForeignRaw":95000,"currency":"USD","exchangeRate":7.25,"source":"TractorHouse","sourceUrl":null,"sourceDate":"20260701","country":"US","notes":"740马力卡特发动机 | 机会等级:★★","createdAt":"2026-05-21T13:17:23.133Z","updatedAt":"2026-07-01T15:37:14.110Z","isActive":true,"confidenceScore":0.85,"lastVerified":"2026-07-01T15:37:14.109Z"}],"seller":{"id":"cmpdjc82b0001mfv72cn8dxq1","companyName":"神雕农机","country":"CN"}},{"id":"cmpdknix7002h11kwupfm486g","sellerId":"cmpdjc82b0001mfv72cn8dxq1","brandId":"claas","categoryId":"forage-harvester","modelName":"980","year":2015,"workingHours":3574,"condition":"good","priceCny":1300000,"priceUsd":179000,"location":"神雕农机","country":null,"province":null,"city":null,"descriptionZh":"克拉斯980青储机2015年，二驱，冠军割台445 4.5米，轧辊3574小时，发动机4864小时，510马力","descriptionEn":"CLAAS 980 forage harvester 2015, 2WD, Champion 445 header 4.5m, roller 3574h, engine 4864h, 510HP","descriptionRu":null,"descriptionEs":null,"descriptionPt":null,"descriptionAr":null,"descriptionFr":null,"descriptionHi":null,"aiGenerated":false,"status":"active","enginePower":null,"engineType":"Diesel Engine","driveSystem":"2WD","overallLength":null,"overallWidth":null,"overallHeight":null,"netWeight":null,"mainConfig":null,"priceMode":"por","tradeTerm":"FOB","tradePort":"Qingdao","latitude":null,"longitude":null,"standardDescriptionEn":null,"createdAt":"2026-05-20T04:38:38.731Z","updatedAt":"2026-07-02T09:16:31.174Z","brand":{"id":"claas","nameZh":"克拉斯","nameEn":"CLAAS","nameRu":"КЛААС","nameEs":"","namePt":"","nameAr":"","nameFr":"","nameHi":"","originCountry":"DE","isImported":true,"isChineseBrand":false,"brandTier":"flagship","expoSlug":"claas","expoLogoUrl":"https://usedfarmmach-oss.oss-cn-beijing.aliyuncs.com/expo/brand-logos/claas.svg","expoCoverUrl":null,"expoStory":"德国克拉斯，全球收获机械领域无可争议的领导者。1913年发明第一台捆扎机，至今110余年。LEXION系列联合收割机全球销量第一，JAGUAR青贮收割机市占率超50%。在牧草设备领域同样处于全球领先地位。","officialWebsite":"https://www.claas.com","establishedYear":1913,"exportVolume":"全球收割机市占率第一，出口150+国家"},"category":{"id":"forage-harvester","nameZh":"青储机","nameEn":"Forage Harvester","nameRu":"Силосоуборочный комбайн","nameEs":"","namePt":"","nameAr":"","nameFr":"","nameHi":"","parentId":null},"images":[{"id":"cmpqezb3r000jrxs9ru278fhw","productId":"cmpdknix7002h11kwupfm486g","url":"https://usedfarmmach-oss.oss-cn-beijing.aliyuncs.com/products/cmpdknix7002h11kwupfm486g/1.jpg?x-oss-process=image/format,webp/quality,q_75/resize,m_fixed,w_600","sortOrder":-1,"isPrimary":true,"angleLabel":null}],"videos":[],"internationalPrices":[{"id":"cmpfimhbb0005v5ldoubntj7z","productId":"cmpdknix7002h11kwupfm486g","priceForeignCny":1740200,"priceForeignRaw":220000,"currency":"EUR","exchangeRate":7.91,"source":"Agroline","sourceUrl":null,"sourceDate":"20260701","country":"DE","notes":"2014旧款 ~174万RMB | 机会等级:★★","createdAt":"2026-05-21T13:17:23.111Z","updatedAt":"2026-07-01T15:37:10.732Z","isActive":true,"confidenceScore":0.85,"lastVerified":"2026-07-01T15:37:10.731Z"}],"seller":{"id":"cmpdjc82b0001mfv72cn8dxq1","companyName":"神雕农机","country":"CN"}},{"id":"cmpfohy08000tkrh5vaaw12nd","sellerId":"cmpdjc7xv0000mfv72up1a2y0","brandId":"claas","categoryId":"forage-harvester","modelName":"970（欧版）","year":2017,"workingHours":null,"condition":"good","priceCny":1630000,"priceUsd":224828,"location":"神雕农机","country":null,"province":null,"city":null,"descriptionZh":"轧辊小时数：2965 发动机小时数：4125 四驱 775马力 奥贝斯750割台 2014年7.5米","descriptionEn":"轧辊小时数：2965 发动机小时数：4125 四驱 775马力 奥贝斯750割台 2014年7.5米","descriptionRu":null,"descriptionEs":null,"descriptionPt":null,"descriptionAr":null,"descriptionFr":null,"descriptionHi":null,"aiGenerated":false,"status":"active","enginePower":null,"engineType":"Diesel Engine","driveSystem":"2WD","overallLength":null,"overallWidth":null,"overallHeight":null,"netWeight":null,"mainConfig":null,"priceMode":"por","tradeTerm":"FOB","tradePort":"Qingdao","latitude":null,"longitude":null,"standardDescriptionEn":null,"createdAt":"2026-05-21T16:01:49.160Z","updatedAt":"2026-07-02T09:16:33.110Z","brand":{"id":"claas","nameZh":"克拉斯","nameEn":"CLAAS","nameRu":"КЛААС","nameEs":"","namePt":"","nameAr":"","nameFr":"","nameHi":"","originCountry":"DE","isImported":true,"isChineseBrand":false,"brandTier":"flagship","expoSlug":"claas","expoLogoUrl":"https://usedfarmmach-oss.oss-cn-beijing.aliyuncs.com/expo/brand-logos/claas.svg","expoCoverUrl":null,"expoStory":"德国克拉斯，全球收获机械领域无可争议的领导者。1913年发明第一台捆扎机，至今110余年。LEXION系列联合收割机全球销量第一，JAGUAR青贮收割机市占率超50%。在牧草设备领域同样处于全球领先地位。","officialWebsite":"https://www.claas.com","establishedYear":1913,"exportVolume":"全球收割机市占率第一，出口150+国家"},"category":{"id":"forage-harvester","nameZh":"青储机","nameEn":"Forage Harvester","nameRu":"Силосоуборочный комбайн","nameEs":"","namePt":"","nameAr":"","nameFr":"","nameHi":"","parentId":null},"images":[{"id":"cmppl0kga0001xb72rgsn7wk1","productId":"cmpfohy08000tkrh5vaaw12nd","url":"https://usedfarmmach-oss.oss-cn-beijing.aliyuncs.com/products/cmpfohy08000tkrh5vaaw12nd/fm.jpg?x-oss-process=image/format,webp/quality,q_75/resize,m_fixed,w_600","sortOrder":0,"isPrimary":true,"angleLabel":null}],"videos":[],"internationalPrices":[],"seller":{"id":"cmpdjc7xv0000mfv72up1a2y0","companyName":"神雕农机","country":"CN"}}],"total":90,"page":1,"pageSize":5,"totalPages":18}}